{
  "annotations": {
    "list": [
      {
        "builtIn": 1,
        "datasource": "-- Grafana --",
        "enable": true,
        "hide": false,
        "iconColor": "#96D98D",
        "name": "deploy",
        "showIn": 0,
        "tags": [
          "deploy",
          "$environment"
        ],
        "type": "tags"
      },
      {
        "builtIn": 1,
        "datasource": "-- Grafana --",
        "enable": true,
        "hide": false,
        "iconColor": "#FFEE52",
        "name": "canary-deploy",
        "showIn": 0,
        "tags": [
          "deploy",
          "${environment}-cny"
        ],
        "type": "tags"
      },
      {
        "builtIn": 1,
        "datasource": "-- Grafana --",
        "enable": true,
        "hide": false,
        "iconColor": "#CA95E5",
        "name": "feature-flags",
        "showIn": 0,
        "tags": [
          "feature-flag",
          "${environment}"
        ],
        "type": "tags"
      }
    ]
  },
  "description": "Uploaded by https://gitlab.com/gitlab-com/runbooks/-/jobs/1493015514 at Tue Aug 10 18:46:14 UTC 2021",
  "editable": true,
  "gnetId": null,
  "graphTooltip": 1,
  "id": null,
  "iteration": 1629357344228,
  "links": [
    {
      "asDropdown": true,
      "icon": "external link",
      "includeVars": false,
      "keepTime": true,
      "tags": "",
      "targetBlank": false,
      "title": "Platform Triage",
      "type": "link",
      "url": "https://dashboards.gitlab.net/d/general-triage/platform-triage?orgId=1"
    },
    {
      "asDropdown": true,
      "icon": "external link",
      "includeVars": false,
      "keepTime": false,
      "tags": "",
      "targetBlank": true,
      "title": "Logs: Registry (servcat)",
      "type": "link",
      "url": "https://log.gprd.gitlab.net/goto/1c2fe46c1db40a7aa7d31875f3fd2ad1"
    },
    {
      "asDropdown": true,
      "icon": "external link",
      "includeVars": false,
      "keepTime": false,
      "tags": "",
      "targetBlank": true,
      "title": "Logs: haproxy (servcat)",
      "type": "link",
      "url": "https://console.cloud.google.com/logs/viewer?project=gitlab-production&interval=PT1H&resource=gce_instance&customFacets=labels.%22compute.googleapis.com%2Fresource_name%22&advancedFilter=labels.tag%3D%22haproxy%22%0Alabels.%22compute.googleapis.com%2Fresource_name%22%3A%22fe-registry-%22"
    },
    {
      "asDropdown": true,
      "icon": "external link",
      "includeVars": false,
      "keepTime": false,
      "tags": "",
      "targetBlank": true,
      "title": "Logs: system (servcat)",
      "type": "link",
      "url": "https://log.gprd.gitlab.net/goto/b68e1a4183a652dc8d5e52a1fc2c1aba"
    },
    {
      "asDropdown": true,
      "icon": "external link",
      "includeVars": true,
      "keepTime": true,
      "tags": [
        "managed",
        "service overview"
      ],
      "targetBlank": false,
      "title": "Service Overview Dashboards",
      "type": "dashboards",
      "url": ""
    },
    {
      "asDropdown": true,
      "icon": "dashboard",
      "includeVars": true,
      "keepTime": true,
      "tags": "type:registry",
      "targetBlank": false,
      "title": "registry Detail",
      "type": "dashboards",
      "url": ""
    },
    {
      "asDropdown": true,
      "icon": "external link",
      "includeVars": true,
      "keepTime": true,
      "tags": [
        "managed",
        "type:registry",
        "kube detail"
      ],
      "targetBlank": false,
      "title": "☸️ registry Kubernetes Detail",
      "type": "dashboards",
      "url": ""
    }
  ],
  "panels": [
    {
      "collapse": true,
      "collapsed": false,
      "datasource": null,
      "gridPos": {
        "h": 1,
        "w": 24,
        "x": 0,
        "y": 0
      },
      "id": 52,
      "panels": [],
      "repeat": null,
      "repeatIteration": null,
      "repeatRowId": null,
      "showTitle": true,
      "title": "🔬 server Service Level Indicator Detail",
      "titleSize": "h6",
      "type": "row"
    },
    {
      "aliasColors": {},
      "bars": false,
      "dashLength": 10,
      "dashes": false,
      "datasource": "$PROMETHEUS_DS",
      "decimals": 2,
      "description": "",
      "fieldConfig": {
        "defaults": {
          "custom": {}
        },
        "overrides": []
      },
      "fill": 0,
      "fillGradient": 0,
      "gridPos": {
        "h": 10,
        "w": 8,
        "x": 0,
        "y": 1
      },
      "hiddenSeries": false,
      "id": 53,
      "legend": {
        "alignAsTable": true,
        "avg": true,
        "current": true,
        "hideEmpty": true,
        "max": true,
        "min": true,
        "rightSide": false,
        "show": true,
        "total": false,
        "values": true
      },
      "lines": true,
      "linewidth": 2,
      "nullPointMode": "null",
      "options": {
        "alertThreshold": true
      },
      "percentage": false,
      "pluginVersion": "7.2.0",
      "pointradius": 5,
      "points": false,
      "renderer": "flot",
      "seriesOverrides": [],
      "spaceLength": 10,
      "stack": false,
      "steppedLine": false,
      "targets": [
        {
          "expr": "histogram_quantile(\n  0.900000,\n  sum by (le) (\n    rate(registry_http_request_duration_seconds_bucket{env=\"$environment\",environment=\"$environment\",route!~\"/v2/{name}/manifests/{reference}\",stage=\"$stage\",type=\"registry\",migration_path=~\"$migration_path\"}[$__interval])\n  )\n)\n",
          "format": "time_series",
          "interval": "1m",
          "intervalFactor": 2,
          "legendFormat": "p90 overall {{migration_path}}",
          "refId": "A"
        }
      ],
      "thresholds": [
        {
          "colorMode": "custom",
          "fill": true,
          "fillColor": "rgba(242, 73, 92, 0.5)",
          "line": false,
          "op": "gt",
          "value": 25,
          "yaxis": "left"
        },
        {
          "colorMode": "custom",
          "fill": true,
          "fillColor": "rgba(242, 73, 92, 0.25)",
          "line": false,
          "op": "gt",
          "value": 2.5,
          "yaxis": "left"
        }
      ],
      "timeFrom": null,
      "timeRegions": [],
      "timeShift": null,
      "title": "Estimated p90 server Latency - Overall",
      "tooltip": {
        "shared": true,
        "sort": 2,
        "value_type": "individual"
      },
      "type": "graph",
      "xaxis": {
        "buckets": null,
        "mode": "time",
        "name": null,
        "show": true,
        "values": []
      },
      "yaxes": [
        {
          "format": "s",
          "label": "Duration",
          "logBase": 10,
          "min": 0.01,
          "show": true
        },
        {
          "format": "short",
          "logBase": 1,
          "max": 1,
          "min": 0,
          "show": false
        }
      ],
      "yaxis": {
        "align": false,
        "alignLevel": null
      }
    },
    {
      "aliasColors": {},
      "bars": false,
      "dashLength": 10,
      "dashes": false,
      "datasource": "$PROMETHEUS_DS",
      "decimals": 2,
      "description": "",
      "fieldConfig": {
        "defaults": {
          "custom": {}
        },
        "overrides": []
      },
      "fill": 0,
      "fillGradient": 0,
      "gridPos": {
        "h": 10,
        "w": 8,
        "x": 8,
        "y": 1
      },
      "hiddenSeries": false,
      "id": 54,
      "legend": {
        "alignAsTable": true,
        "avg": true,
        "current": true,
        "hideEmpty": true,
        "max": true,
        "min": true,
        "rightSide": false,
        "show": true,
        "total": false,
        "values": true
      },
      "lines": true,
      "linewidth": 2,
      "nullPointMode": "null",
      "options": {
        "alertThreshold": true
      },
      "percentage": false,
      "pluginVersion": "7.2.0",
      "pointradius": 5,
      "points": false,
      "renderer": "flot",
      "seriesOverrides": [],
      "spaceLength": 10,
      "stack": false,
      "steppedLine": false,
      "targets": [
        {
          "expr": "sum by () (\n  rate(registry_http_requests_total{code=~\"5..\",env=\"$environment\",environment=\"$environment\",stage=\"$stage\",type=\"registry\",migration_path=~\"$migration_path\"}[$__interval])\n)\n",
          "format": "time_series",
          "interval": "1m",
          "intervalFactor": 2,
          "legendFormat": "overall {{migration_path}}",
          "refId": "A"
        }
      ],
      "thresholds": [],
      "timeFrom": null,
      "timeRegions": [],
      "timeShift": null,
      "title": "server Errors - Overall",
      "tooltip": {
        "shared": true,
        "sort": 2,
        "value_type": "individual"
      },
      "type": "graph",
      "xaxis": {
        "buckets": null,
        "mode": "time",
        "name": null,
        "show": true,
        "values": []
      },
      "yaxes": [
        {
          "format": "short",
          "label": "Errors",
          "logBase": 1,
          "min": 0,
          "show": true
        },
        {
          "format": "short",
          "logBase": 1,
          "max": 1,
          "min": 0,
          "show": false
        }
      ],
      "yaxis": {
        "align": false,
        "alignLevel": null
      }
    },
    {
      "aliasColors": {},
      "bars": false,
      "dashLength": 10,
      "dashes": false,
      "datasource": "$PROMETHEUS_DS",
      "decimals": 0,
      "description": "",
      "fieldConfig": {
        "defaults": {
          "custom": {}
        },
        "overrides": []
      },
      "fill": 0,
      "fillGradient": 0,
      "gridPos": {
        "h": 10,
        "w": 8,
        "x": 16,
        "y": 1
      },
      "hiddenSeries": false,
      "id": 55,
      "legend": {
        "alignAsTable": true,
        "avg": true,
        "current": true,
        "hideEmpty": true,
        "max": true,
        "min": true,
        "rightSide": false,
        "show": true,
        "total": false,
        "values": true
      },
      "lines": true,
      "linewidth": 2,
      "nullPointMode": "null",
      "options": {
        "alertThreshold": true
      },
      "percentage": false,
      "pluginVersion": "7.2.0",
      "pointradius": 5,
      "points": false,
      "renderer": "flot",
      "seriesOverrides": [],
      "spaceLength": 10,
      "stack": false,
      "steppedLine": false,
      "targets": [
        {
          "expr": "sum by () (\n  rate(registry_http_requests_total{env=\"$environment\",environment=\"$environment\",stage=\"$stage\",type=\"registry\",migration_path=~\"$migration_path\"}[$__interval])\n)\n",
          "format": "time_series",
          "interval": "1m",
          "intervalFactor": 2,
          "legendFormat": "overall {{migration_path}}",
          "refId": "A"
        }
      ],
      "thresholds": [],
      "timeFrom": null,
      "timeRegions": [],
      "timeShift": null,
      "title": "server RPS - Overall",
      "tooltip": {
        "shared": true,
        "sort": 2,
        "value_type": "individual"
      },
      "type": "graph",
      "xaxis": {
        "buckets": null,
        "mode": "time",
        "name": null,
        "show": true,
        "values": []
      },
      "yaxes": [
        {
          "format": "short",
          "label": "Requests per Second",
          "logBase": 1,
          "min": 0,
          "show": true
        },
        {
          "format": "short",
          "logBase": 1,
          "max": 1,
          "min": 0,
          "show": false
        }
      ],
      "yaxis": {
        "align": false,
        "alignLevel": null
      }
    },
    {
      "aliasColors": {},
      "bars": false,
      "dashLength": 10,
      "dashes": false,
      "datasource": "$PROMETHEUS_DS",
      "decimals": 2,
      "description": "",
      "fieldConfig": {
        "defaults": {
          "custom": {}
        },
        "overrides": []
      },
      "fill": 0,
      "fillGradient": 0,
      "gridPos": {
        "h": 10,
        "w": 6,
        "x": 0,
        "y": 11
      },
      "hiddenSeries": false,
      "id": 56,
      "legend": {
        "alignAsTable": true,
        "avg": true,
        "current": true,
        "hideEmpty": true,
        "max": true,
        "min": true,
        "rightSide": false,
        "show": true,
        "total": false,
        "values": true
      },
      "lines": true,
      "linewidth": 2,
      "nullPointMode": "null",
      "options": {
        "alertThreshold": true
      },
      "percentage": false,
      "pluginVersion": "7.2.0",
      "pointradius": 5,
      "points": false,
      "renderer": "flot",
      "seriesOverrides": [],
      "spaceLength": 10,
      "stack": false,
      "steppedLine": false,
      "targets": [
        {
          "expr": "histogram_quantile(\n  0.900000,\n  sum by (route,le) (\n    rate(registry_http_request_duration_seconds_bucket{env=\"$environment\",environment=\"$environment\",route!~\"/v2/{name}/manifests/{reference}\",stage=\"$stage\",type=\"registry\",migration_path=~\"$migration_path\"}[$__interval])\n  )\n)\n",
          "format": "time_series",
          "interval": "1m",
          "intervalFactor": 2,
          "legendFormat": "p90 {{migration_path}} {{route}}",
          "refId": "A"
        }
      ],
      "thresholds": [
        {
          "colorMode": "custom",
          "fill": true,
          "fillColor": "rgba(242, 73, 92, 0.5)",
          "line": false,
          "op": "gt",
          "value": 25,
          "yaxis": "left"
        },
        {
          "colorMode": "custom",
          "fill": true,
          "fillColor": "rgba(242, 73, 92, 0.25)",
          "line": false,
          "op": "gt",
          "value": 2.5,
          "yaxis": "left"
        }
      ],
      "timeFrom": null,
      "timeRegions": [],
      "timeShift": null,
      "title": "Estimated p90 server Latency - per route",
      "tooltip": {
        "shared": true,
        "sort": 2,
        "value_type": "individual"
      },
      "type": "graph",
      "xaxis": {
        "buckets": null,
        "mode": "time",
        "name": null,
        "show": true,
        "values": []
      },
      "yaxes": [
        {
          "format": "s",
          "label": "Duration",
          "logBase": 10,
          "min": 0.01,
          "show": true
        },
        {
          "format": "short",
          "logBase": 1,
          "max": 1,
          "min": 0,
          "show": false
        }
      ],
      "yaxis": {
        "align": false,
        "alignLevel": null
      }
    },
    {
      "aliasColors": {},
      "bars": false,
      "dashLength": 10,
      "dashes": false,
      "datasource": "$PROMETHEUS_DS",
      "decimals": 2,
      "description": "Attributes apdex downscoring",
      "fieldConfig": {
        "defaults": {
          "custom": {}
        },
        "overrides": []
      },
      "fill": 4,
      "fillGradient": 0,
      "gridPos": {
        "h": 10,
        "w": 6,
        "x": 6,
        "y": 11
      },
      "hiddenSeries": false,
      "id": 57,
      "legend": {
        "alignAsTable": true,
        "avg": true,
        "current": true,
        "hideEmpty": true,
        "max": true,
        "min": true,
        "rightSide": false,
        "show": true,
        "total": false,
        "values": true
      },
      "lines": true,
      "linewidth": 1,
      "nullPointMode": "null",
      "options": {
        "alertThreshold": true
      },
      "percentage": false,
      "pluginVersion": "7.2.0",
      "pointradius": 5,
      "points": false,
      "renderer": "flot",
      "seriesOverrides": [
        {
          "alias": "/.*/",
          "transform": "negative-Y"
        }
      ],
      "spaceLength": 10,
      "stack": true,
      "steppedLine": false,
      "targets": [
        {
          "expr": "clamp_min(clamp_max((\n  sum by (route) (\n  rate(registry_http_request_duration_seconds_bucket{env=\"$environment\",environment=\"$environment\",le=\"+Inf\",route!~\"/v2/{name}/manifests/{reference}\",stage=\"$stage\",type=\"registry\",migration_path=~\"$migration_path\"}[$__interval])\n)\n\n  -\n  (\n    (\n  sum by (route) (\n    rate(registry_http_request_duration_seconds_bucket{env=\"$environment\",environment=\"$environment\",le=\"2.5\",route!~\"/v2/{name}/manifests/{reference}\",stage=\"$stage\",type=\"registry\",migration_path=~\"$migration_path\"}[$__interval])\n  )\n  +\n  sum by (route) (\n    rate(registry_http_request_duration_seconds_bucket{env=\"$environment\",environment=\"$environment\",le=\"25\",route!~\"/v2/{name}/manifests/{reference}\",stage=\"$stage\",type=\"registry\",migration_path=~\"$migration_path\"}[$__interval])\n  )\n)\n/\n2\n\n  )\n)\n/ ignoring(route) group_left()\n(\n  sum by () (\n  rate(registry_http_request_duration_seconds_bucket{env=\"$environment\",environment=\"$environment\",le=\"+Inf\",route!~\"/v2/{name}/manifests/{reference}\",stage=\"$stage\",type=\"registry\"}[$__interval])\n)\n\n)\n\n,1),0)\n",
          "format": "time_series",
          "interval": "1m",
          "intervalFactor": 3,
          "legendFormat": "{{migration_path}} {{route}}",
          "refId": "A"
        }
      ],
      "thresholds": [],
      "timeFrom": null,
      "timeRegions": [],
      "timeShift": null,
      "title": "Apdex attribution for server Latency - per route",
      "tooltip": {
        "shared": true,
        "sort": 2,
        "value_type": "individual"
      },
      "type": "graph",
      "xaxis": {
        "buckets": null,
        "mode": "time",
        "name": null,
        "show": true,
        "values": []
      },
      "yaxes": [
        {
          "format": "percentunit",
          "label": "Percent",
          "logBase": 1,
          "show": true
        },
        {
          "format": "short",
          "logBase": 1,
          "max": 1,
          "min": 0,
          "show": false
        }
      ],
      "yaxis": {
        "align": false,
        "alignLevel": null
      }
    },
    {
      "aliasColors": {},
      "bars": false,
      "dashLength": 10,
      "dashes": false,
      "datasource": "$PROMETHEUS_DS",
      "decimals": 2,
      "description": "",
      "fieldConfig": {
        "defaults": {
          "custom": {}
        },
        "overrides": []
      },
      "fill": 0,
      "fillGradient": 0,
      "gridPos": {
        "h": 10,
        "w": 6,
        "x": 12,
        "y": 11
      },
      "hiddenSeries": false,
      "id": 58,
      "legend": {
        "alignAsTable": true,
        "avg": true,
        "current": true,
        "hideEmpty": true,
        "max": true,
        "min": true,
        "rightSide": false,
        "show": true,
        "total": false,
        "values": true
      },
      "lines": true,
      "linewidth": 2,
      "nullPointMode": "null",
      "options": {
        "alertThreshold": true
      },
      "percentage": false,
      "pluginVersion": "7.2.0",
      "pointradius": 5,
      "points": false,
      "renderer": "flot",
      "seriesOverrides": [],
      "spaceLength": 10,
      "stack": false,
      "steppedLine": false,
      "targets": [
        {
          "expr": "sum by (route) (\n  rate(registry_http_requests_total{code=~\"5..\",env=\"$environment\",environment=\"$environment\",stage=\"$stage\",type=\"registry\",migration_path=~\"$migration_path\"}[$__interval])\n)\n",
          "format": "time_series",
          "interval": "1m",
          "intervalFactor": 2,
          "legendFormat": "{{migration_path}} {{route}}",
          "refId": "A"
        }
      ],
      "thresholds": [],
      "timeFrom": null,
      "timeRegions": [],
      "timeShift": null,
      "title": "server Errors - per route",
      "tooltip": {
        "shared": true,
        "sort": 2,
        "value_type": "individual"
      },
      "type": "graph",
      "xaxis": {
        "buckets": null,
        "mode": "time",
        "name": null,
        "show": true,
        "values": []
      },
      "yaxes": [
        {
          "format": "short",
          "label": "Errors",
          "logBase": 1,
          "min": 0,
          "show": true
        },
        {
          "format": "short",
          "logBase": 1,
          "max": 1,
          "min": 0,
          "show": false
        }
      ],
      "yaxis": {
        "align": false,
        "alignLevel": null
      }
    },
    {
      "aliasColors": {},
      "bars": false,
      "dashLength": 10,
      "dashes": false,
      "datasource": "$PROMETHEUS_DS",
      "decimals": 0,
      "description": "",
      "fieldConfig": {
        "defaults": {
          "custom": {}
        },
        "overrides": []
      },
      "fill": 0,
      "fillGradient": 0,
      "gridPos": {
        "h": 10,
        "w": 6,
        "x": 18,
        "y": 11
      },
      "hiddenSeries": false,
      "id": 59,
      "legend": {
        "alignAsTable": true,
        "avg": true,
        "current": true,
        "hideEmpty": true,
        "max": true,
        "min": true,
        "rightSide": false,
        "show": true,
        "total": false,
        "values": true
      },
      "lines": true,
      "linewidth": 2,
      "nullPointMode": "null",
      "options": {
        "alertThreshold": true
      },
      "percentage": false,
      "pluginVersion": "7.2.0",
      "pointradius": 5,
      "points": false,
      "renderer": "flot",
      "seriesOverrides": [],
      "spaceLength": 10,
      "stack": false,
      "steppedLine": false,
      "targets": [
        {
          "expr": "sum by (route) (\n  rate(registry_http_requests_total{env=\"$environment\",environment=\"$environment\",stage=\"$stage\",type=\"registry\",migration_path=~\"$migration_path\"}[$__interval])\n)\n",
          "format": "time_series",
          "interval": "1m",
          "intervalFactor": 2,
          "legendFormat": "{{migration_path}} {{route}}",
          "refId": "A"
        }
      ],
      "thresholds": [],
      "timeFrom": null,
      "timeRegions": [],
      "timeShift": null,
      "title": "server RPS - per route",
      "tooltip": {
        "shared": true,
        "sort": 2,
        "value_type": "individual"
      },
      "type": "graph",
      "xaxis": {
        "buckets": null,
        "mode": "time",
        "name": null,
        "show": true,
        "values": []
      },
      "yaxes": [
        {
          "format": "short",
          "label": "Requests per Second",
          "logBase": 1,
          "min": 0,
          "show": true
        },
        {
          "format": "short",
          "logBase": 1,
          "max": 1,
          "min": 0,
          "show": false
        }
      ],
      "yaxis": {
        "align": false,
        "alignLevel": null
      }
    },
    {
      "aliasColors": {},
      "bars": false,
      "dashLength": 10,
      "dashes": false,
      "datasource": "$PROMETHEUS_DS",
      "decimals": 2,
      "description": "",
      "fieldConfig": {
        "defaults": {
          "custom": {}
        },
        "overrides": []
      },
      "fill": 0,
      "fillGradient": 0,
      "gridPos": {
        "h": 10,
        "w": 6,
        "x": 0,
        "y": 21
      },
      "hiddenSeries": false,
      "id": 60,
      "legend": {
        "alignAsTable": true,
        "avg": true,
        "current": true,
        "hideEmpty": true,
        "max": true,
        "min": true,
        "rightSide": false,
        "show": true,
        "total": false,
        "values": true
      },
      "lines": true,
      "linewidth": 2,
      "nullPointMode": "null",
      "options": {
        "alertThreshold": true
      },
      "percentage": false,
      "pluginVersion": "7.2.0",
      "pointradius": 5,
      "points": false,
      "renderer": "flot",
      "seriesOverrides": [],
      "spaceLength": 10,
      "stack": false,
      "steppedLine": false,
      "targets": [
        {
          "expr": "histogram_quantile(\n  0.900000,\n  sum by (method,le) (\n    rate(registry_http_request_duration_seconds_bucket{env=\"$environment\",environment=\"$environment\",route!~\"/v2/{name}/manifests/{reference}\",stage=\"$stage\",type=\"registry\",migration_path=~\"$migration_path\"}[$__interval])\n  )\n)\n",
          "format": "time_series",
          "interval": "1m",
          "intervalFactor": 2,
          "legendFormat": "p90 {{migration_path}} {{method}}",
          "refId": "A"
        }
      ],
      "thresholds": [
        {
          "colorMode": "custom",
          "fill": true,
          "fillColor": "rgba(242, 73, 92, 0.5)",
          "line": false,
          "op": "gt",
          "value": 25,
          "yaxis": "left"
        },
        {
          "colorMode": "custom",
          "fill": true,
          "fillColor": "rgba(242, 73, 92, 0.25)",
          "line": false,
          "op": "gt",
          "value": 2.5,
          "yaxis": "left"
        }
      ],
      "timeFrom": null,
      "timeRegions": [],
      "timeShift": null,
      "title": "Estimated p90 server Latency - per method",
      "tooltip": {
        "shared": true,
        "sort": 2,
        "value_type": "individual"
      },
      "type": "graph",
      "xaxis": {
        "buckets": null,
        "mode": "time",
        "name": null,
        "show": true,
        "values": []
      },
      "yaxes": [
        {
          "format": "s",
          "label": "Duration",
          "logBase": 10,
          "min": 0.01,
          "show": true
        },
        {
          "format": "short",
          "logBase": 1,
          "max": 1,
          "min": 0,
          "show": false
        }
      ],
      "yaxis": {
        "align": false,
        "alignLevel": null
      }
    },
    {
      "aliasColors": {},
      "bars": false,
      "dashLength": 10,
      "dashes": false,
      "datasource": "$PROMETHEUS_DS",
      "decimals": 2,
      "description": "Attributes apdex downscoring",
      "fieldConfig": {
        "defaults": {
          "custom": {}
        },
        "overrides": []
      },
      "fill": 4,
      "fillGradient": 0,
      "gridPos": {
        "h": 10,
        "w": 6,
        "x": 6,
        "y": 21
      },
      "hiddenSeries": false,
      "id": 61,
      "legend": {
        "alignAsTable": true,
        "avg": true,
        "current": true,
        "hideEmpty": true,
        "max": true,
        "min": true,
        "rightSide": false,
        "show": true,
        "total": false,
        "values": true
      },
      "lines": true,
      "linewidth": 1,
      "nullPointMode": "null",
      "options": {
        "alertThreshold": true
      },
      "percentage": false,
      "pluginVersion": "7.2.0",
      "pointradius": 5,
      "points": false,
      "renderer": "flot",
      "seriesOverrides": [
        {
          "alias": "/.*/",
          "transform": "negative-Y"
        }
      ],
      "spaceLength": 10,
      "stack": true,
      "steppedLine": false,
      "targets": [
        {
          "expr": "clamp_min(clamp_max((\n  sum by (method) (\n  rate(registry_http_request_duration_seconds_bucket{env=\"$environment\",environment=\"$environment\",le=\"+Inf\",route!~\"/v2/{name}/manifests/{reference}\",stage=\"$stage\",type=\"registry\",migration_path=~\"$migration_path\"}[$__interval])\n)\n\n  -\n  (\n    (\n  sum by (method) (\n    rate(registry_http_request_duration_seconds_bucket{env=\"$environment\",environment=\"$environment\",le=\"2.5\",route!~\"/v2/{name}/manifests/{reference}\",stage=\"$stage\",type=\"registry\",migration_path=~\"$migration_path\"}[$__interval])\n  )\n  +\n  sum by (method) (\n    rate(registry_http_request_duration_seconds_bucket{env=\"$environment\",environment=\"$environment\",le=\"25\",route!~\"/v2/{name}/manifests/{reference}\",stage=\"$stage\",type=\"registry\",migration_path=~\"$migration_path\"}[$__interval])\n  )\n)\n/\n2\n\n  )\n)\n/ ignoring(method) group_left()\n(\n  sum by () (\n  rate(registry_http_request_duration_seconds_bucket{env=\"$environment\",environment=\"$environment\",le=\"+Inf\",route!~\"/v2/{name}/manifests/{reference}\",stage=\"$stage\",type=\"registry\",migration_path=~\"$migration_path\"}[$__interval])\n)\n\n)\n\n,1),0)\n",
          "format": "time_series",
          "interval": "1m",
          "intervalFactor": 3,
          "legendFormat": "{{migration_path}} {{method}}",
          "refId": "A"
        }
      ],
      "thresholds": [],
      "timeFrom": null,
      "timeRegions": [],
      "timeShift": null,
      "title": "Apdex attribution for server Latency - per method",
      "tooltip": {
        "shared": true,
        "sort": 2,
        "value_type": "individual"
      },
      "type": "graph",
      "xaxis": {
        "buckets": null,
        "mode": "time",
        "name": null,
        "show": true,
        "values": []
      },
      "yaxes": [
        {
          "format": "percentunit",
          "label": "Percent",
          "logBase": 1,
          "show": true
        },
        {
          "format": "short",
          "logBase": 1,
          "max": 1,
          "min": 0,
          "show": false
        }
      ],
      "yaxis": {
        "align": false,
        "alignLevel": null
      }
    },
    {
      "aliasColors": {},
      "bars": false,
      "dashLength": 10,
      "dashes": false,
      "datasource": "$PROMETHEUS_DS",
      "decimals": 2,
      "description": "",
      "fieldConfig": {
        "defaults": {
          "custom": {}
        },
        "overrides": []
      },
      "fill": 0,
      "fillGradient": 0,
      "gridPos": {
        "h": 10,
        "w": 6,
        "x": 12,
        "y": 21
      },
      "hiddenSeries": false,
      "id": 62,
      "legend": {
        "alignAsTable": true,
        "avg": true,
        "current": true,
        "hideEmpty": true,
        "max": true,
        "min": true,
        "rightSide": false,
        "show": true,
        "total": false,
        "values": true
      },
      "lines": true,
      "linewidth": 2,
      "nullPointMode": "null",
      "options": {
        "alertThreshold": true
      },
      "percentage": false,
      "pluginVersion": "7.2.0",
      "pointradius": 5,
      "points": false,
      "renderer": "flot",
      "seriesOverrides": [],
      "spaceLength": 10,
      "stack": false,
      "steppedLine": false,
      "targets": [
        {
          "expr": "sum by (method) (\n  rate(registry_http_requests_total{code=~\"5..\",env=\"$environment\",environment=\"$environment\",stage=\"$stage\",type=\"registry\",migration_path=~\"$migration_path\"}[$__interval])\n)\n",
          "format": "time_series",
          "interval": "1m",
          "intervalFactor": 2,
          "legendFormat": "{{migration_path}} {{method}}",
          "refId": "A"
        }
      ],
      "thresholds": [],
      "timeFrom": null,
      "timeRegions": [],
      "timeShift": null,
      "title": "server Errors - per method",
      "tooltip": {
        "shared": true,
        "sort": 2,
        "value_type": "individual"
      },
      "type": "graph",
      "xaxis": {
        "buckets": null,
        "mode": "time",
        "name": null,
        "show": true,
        "values": []
      },
      "yaxes": [
        {
          "format": "short",
          "label": "Errors",
          "logBase": 1,
          "min": 0,
          "show": true
        },
        {
          "format": "short",
          "logBase": 1,
          "max": 1,
          "min": 0,
          "show": false
        }
      ],
      "yaxis": {
        "align": false,
        "alignLevel": null
      }
    },
    {
      "aliasColors": {},
      "bars": false,
      "dashLength": 10,
      "dashes": false,
      "datasource": "$PROMETHEUS_DS",
      "decimals": 0,
      "description": "",
      "fieldConfig": {
        "defaults": {
          "custom": {}
        },
        "overrides": []
      },
      "fill": 0,
      "fillGradient": 0,
      "gridPos": {
        "h": 10,
        "w": 6,
        "x": 18,
        "y": 21
      },
      "hiddenSeries": false,
      "id": 63,
      "legend": {
        "alignAsTable": true,
        "avg": true,
        "current": true,
        "hideEmpty": true,
        "max": true,
        "min": true,
        "rightSide": false,
        "show": true,
        "total": false,
        "values": true
      },
      "lines": true,
      "linewidth": 2,
      "nullPointMode": "null",
      "options": {
        "alertThreshold": true
      },
      "percentage": false,
      "pluginVersion": "7.2.0",
      "pointradius": 5,
      "points": false,
      "renderer": "flot",
      "seriesOverrides": [],
      "spaceLength": 10,
      "stack": false,
      "steppedLine": false,
      "targets": [
        {
          "expr": "sum by (method) (\n  rate(registry_http_requests_total{env=\"$environment\",environment=\"$environment\",stage=\"$stage\",type=\"registry\",migration_path=~\"$migration_path\"}[$__interval])\n)\n",
          "format": "time_series",
          "interval": "1m",
          "intervalFactor": 2,
          "legendFormat": "{{migration_path}} {{method}}",
          "refId": "A"
        }
      ],
      "thresholds": [],
      "timeFrom": null,
      "timeRegions": [],
      "timeShift": null,
      "title": "server RPS - per method",
      "tooltip": {
        "shared": true,
        "sort": 2,
        "value_type": "individual"
      },
      "type": "graph",
      "xaxis": {
        "buckets": null,
        "mode": "time",
        "name": null,
        "show": true,
        "values": []
      },
      "yaxes": [
        {
          "format": "short",
          "label": "Requests per Second",
          "logBase": 1,
          "min": 0,
          "show": true
        },
        {
          "format": "short",
          "logBase": 1,
          "max": 1,
          "min": 0,
          "show": false
        }
      ],
      "yaxis": {
        "align": false,
        "alignLevel": null
      }
    },
    {
      "collapse": true,
      "collapsed": false,
      "datasource": null,
      "gridPos": {
        "h": 1,
        "w": 24,
        "x": 0,
        "y": 31
      },
      "id": 68,
      "panels": [],
      "repeat": null,
      "repeatIteration": null,
      "repeatRowId": null,
      "showTitle": true,
      "title": "🔬 server_route_manifest_reads Service Level Indicator Detail",
      "titleSize": "h6",
      "type": "row"
    },
    {
      "aliasColors": {},
      "bars": false,
      "dashLength": 10,
      "dashes": false,
      "datasource": "$PROMETHEUS_DS",
      "decimals": 2,
      "description": "",
      "fieldConfig": {
        "defaults": {
          "custom": {}
        },
        "overrides": []
      },
      "fill": 0,
      "fillGradient": 0,
      "gridPos": {
        "h": 10,
        "w": 12,
        "x": 0,
        "y": 32
      },
      "hiddenSeries": false,
      "id": 69,
      "legend": {
        "alignAsTable": true,
        "avg": true,
        "current": true,
        "hideEmpty": true,
        "max": true,
        "min": true,
        "rightSide": false,
        "show": true,
        "total": false,
        "values": true
      },
      "lines": true,
      "linewidth": 2,
      "nullPointMode": "null",
      "options": {
        "alertThreshold": true
      },
      "percentage": false,
      "pluginVersion": "7.2.0",
      "pointradius": 5,
      "points": false,
      "renderer": "flot",
      "seriesOverrides": [],
      "spaceLength": 10,
      "stack": false,
      "steppedLine": false,
      "targets": [
        {
          "expr": "histogram_quantile(\n  0.900000,\n  sum by (le) (\n    rate(registry_http_request_duration_seconds_bucket{env=\"$environment\",environment=\"$environment\",method=~\"get|head\",route=\"/v2/{name}/manifests/{reference}\",stage=\"$stage\",type=\"registry\",migration_path=~\"$migration_path\"}[$__interval])\n  )\n)\n",
          "format": "time_series",
          "interval": "1m",
          "intervalFactor": 2,
          "legendFormat": "p90 overall {{migration_path}}",
          "refId": "A"
        }
      ],
      "thresholds": [
        {
          "colorMode": "custom",
          "fill": true,
          "fillColor": "rgba(242, 73, 92, 0.5)",
          "line": false,
          "op": "gt",
          "value": 1,
          "yaxis": "left"
        },
        {
          "colorMode": "custom",
          "fill": true,
          "fillColor": "rgba(242, 73, 92, 0.25)",
          "line": false,
          "op": "gt",
          "value": 0.5,
          "yaxis": "left"
        }
      ],
      "timeFrom": null,
      "timeRegions": [],
      "timeShift": null,
      "title": "Estimated p90 server_route_manifest_reads Latency - Overall",
      "tooltip": {
        "shared": true,
        "sort": 2,
        "value_type": "individual"
      },
      "type": "graph",
      "xaxis": {
        "buckets": null,
        "mode": "time",
        "name": null,
        "show": true,
        "values": []
      },
      "yaxes": [
        {
          "format": "s",
          "label": "Duration",
          "logBase": 10,
          "min": 0.01,
          "show": true
        },
        {
          "format": "short",
          "logBase": 1,
          "max": 1,
          "min": 0,
          "show": false
        }
      ],
      "yaxis": {
        "align": false,
        "alignLevel": null
      }
    },
    {
      "aliasColors": {},
      "bars": false,
      "dashLength": 10,
      "dashes": false,
      "datasource": "$PROMETHEUS_DS",
      "decimals": 0,
      "description": "",
      "fieldConfig": {
        "defaults": {
          "custom": {}
        },
        "overrides": []
      },
      "fill": 0,
      "fillGradient": 0,
      "gridPos": {
        "h": 10,
        "w": 12,
        "x": 12,
        "y": 32
      },
      "hiddenSeries": false,
      "id": 70,
      "legend": {
        "alignAsTable": true,
        "avg": true,
        "current": true,
        "hideEmpty": true,
        "max": true,
        "min": true,
        "rightSide": false,
        "show": true,
        "total": false,
        "values": true
      },
      "lines": true,
      "linewidth": 2,
      "nullPointMode": "null",
      "options": {
        "alertThreshold": true
      },
      "percentage": false,
      "pluginVersion": "7.2.0",
      "pointradius": 5,
      "points": false,
      "renderer": "flot",
      "seriesOverrides": [],
      "spaceLength": 10,
      "stack": false,
      "steppedLine": false,
      "targets": [
        {
          "expr": "sum by () (\n  rate(registry_http_request_duration_seconds_count{env=\"$environment\",environment=\"$environment\",method=~\"get|head\",route=\"/v2/{name}/manifests/{reference}\",stage=\"$stage\",migration_path=~\"$migration_path\"}[$__interval])\n)\n",
          "format": "time_series",
          "interval": "1m",
          "intervalFactor": 2,
          "legendFormat": "overall {{migration_path}}",
          "refId": "A"
        }
      ],
      "thresholds": [],
      "timeFrom": null,
      "timeRegions": [],
      "timeShift": null,
      "title": "server_route_manifest_reads RPS - Overall",
      "tooltip": {
        "shared": true,
        "sort": 2,
        "value_type": "individual"
      },
      "type": "graph",
      "xaxis": {
        "buckets": null,
        "mode": "time",
        "name": null,
        "show": true,
        "values": []
      },
      "yaxes": [
        {
          "format": "short",
          "label": "Requests per Second",
          "logBase": 1,
          "min": 0,
          "show": true
        },
        {
          "format": "short",
          "logBase": 1,
          "max": 1,
          "min": 0,
          "show": false
        }
      ],
      "yaxis": {
        "align": false,
        "alignLevel": null
      }
    },
    {
      "aliasColors": {},
      "bars": false,
      "dashLength": 10,
      "dashes": false,
      "datasource": "$PROMETHEUS_DS",
      "decimals": 2,
      "description": "",
      "fieldConfig": {
        "defaults": {
          "custom": {}
        },
        "overrides": []
      },
      "fill": 0,
      "fillGradient": 0,
      "gridPos": {
        "h": 10,
        "w": 8,
        "x": 0,
        "y": 42
      },
      "hiddenSeries": false,
      "id": 71,
      "legend": {
        "alignAsTable": true,
        "avg": true,
        "current": true,
        "hideEmpty": true,
        "max": true,
        "min": true,
        "rightSide": false,
        "show": true,
        "total": false,
        "values": true
      },
      "lines": true,
      "linewidth": 2,
      "nullPointMode": "null",
      "options": {
        "alertThreshold": true
      },
      "percentage": false,
      "pluginVersion": "7.2.0",
      "pointradius": 5,
      "points": false,
      "renderer": "flot",
      "seriesOverrides": [],
      "spaceLength": 10,
      "stack": false,
      "steppedLine": false,
      "targets": [
        {
          "expr": "histogram_quantile(\n  0.900000,\n  sum by (method,le) (\n    rate(registry_http_request_duration_seconds_bucket{env=\"$environment\",environment=\"$environment\",method=~\"get|head\",route=\"/v2/{name}/manifests/{reference}\",stage=\"$stage\",type=\"registry\",migration_path=~\"$migration_path\"}[$__interval])\n  )\n)\n",
          "format": "time_series",
          "interval": "1m",
          "intervalFactor": 2,
          "legendFormat": "p90 {{migration_path}} {{method}}",
          "refId": "A"
        }
      ],
      "thresholds": [
        {
          "colorMode": "custom",
          "fill": true,
          "fillColor": "rgba(242, 73, 92, 0.5)",
          "line": false,
          "op": "gt",
          "value": 1,
          "yaxis": "left"
        },
        {
          "colorMode": "custom",
          "fill": true,
          "fillColor": "rgba(242, 73, 92, 0.25)",
          "line": false,
          "op": "gt",
          "value": 0.5,
          "yaxis": "left"
        }
      ],
      "timeFrom": null,
      "timeRegions": [],
      "timeShift": null,
      "title": "Estimated p90 server_route_manifest_reads Latency - per method",
      "tooltip": {
        "shared": true,
        "sort": 2,
        "value_type": "individual"
      },
      "type": "graph",
      "xaxis": {
        "buckets": null,
        "mode": "time",
        "name": null,
        "show": true,
        "values": []
      },
      "yaxes": [
        {
          "format": "s",
          "label": "Duration",
          "logBase": 10,
          "min": 0.01,
          "show": true
        },
        {
          "format": "short",
          "logBase": 1,
          "max": 1,
          "min": 0,
          "show": false
        }
      ],
      "yaxis": {
        "align": false,
        "alignLevel": null
      }
    },
    {
      "aliasColors": {},
      "bars": false,
      "dashLength": 10,
      "dashes": false,
      "datasource": "$PROMETHEUS_DS",
      "decimals": 2,
      "description": "Attributes apdex downscoring",
      "fieldConfig": {
        "defaults": {
          "custom": {}
        },
        "overrides": []
      },
      "fill": 4,
      "fillGradient": 0,
      "gridPos": {
        "h": 10,
        "w": 8,
        "x": 8,
        "y": 42
      },
      "hiddenSeries": false,
      "id": 72,
      "legend": {
        "alignAsTable": true,
        "avg": true,
        "current": true,
        "hideEmpty": true,
        "max": true,
        "min": true,
        "rightSide": false,
        "show": true,
        "total": false,
        "values": true
      },
      "lines": true,
      "linewidth": 1,
      "nullPointMode": "null",
      "options": {
        "alertThreshold": true
      },
      "percentage": false,
      "pluginVersion": "7.2.0",
      "pointradius": 5,
      "points": false,
      "renderer": "flot",
      "seriesOverrides": [
        {
          "alias": "/.*/",
          "transform": "negative-Y"
        }
      ],
      "spaceLength": 10,
      "stack": true,
      "steppedLine": false,
      "targets": [
        {
          "expr": "clamp_min(clamp_max((\n  sum by (method) (\n  rate(registry_http_request_duration_seconds_bucket{env=\"$environment\",environment=\"$environment\",le=\"+Inf\",method=~\"get|head\",route=\"/v2/{name}/manifests/{reference}\",stage=\"$stage\",type=\"registry\",migration_path=~\"$migration_path\"}[$__interval])\n)\n\n  -\n  (\n    (\n  sum by (method) (\n    rate(registry_http_request_duration_seconds_bucket{env=\"$environment\",environment=\"$environment\",le=\"0.5\",method=~\"get|head\",route=\"/v2/{name}/manifests/{reference}\",stage=\"$stage\",type=\"registry\",migration_path=~\"$migration_path\"}[$__interval])\n  )\n  +\n  sum by (method) (\n    rate(registry_http_request_duration_seconds_bucket{env=\"$environment\",environment=\"$environment\",le=\"1\",method=~\"get|head\",route=\"/v2/{name}/manifests/{reference}\",stage=\"$stage\",type=\"registry\",migration_path=~\"$migration_path\"}[$__interval])\n  )\n)\n/\n2\n\n  )\n)\n/ ignoring(method) group_left()\n(\n  sum by () (\n  rate(registry_http_request_duration_seconds_bucket{env=\"$environment\",environment=\"$environment\",le=\"+Inf\",method=~\"get|head\",route=\"/v2/{name}/manifests/{reference}\",stage=\"$stage\",type=\"registry\",migration_path=~\"$migration_path\"}[$__interval])\n)\n\n)\n\n,1),0)\n",
          "format": "time_series",
          "interval": "1m",
          "intervalFactor": 3,
          "legendFormat": "{{migration_path}} {{method}}",
          "refId": "A"
        }
      ],
      "thresholds": [],
      "timeFrom": null,
      "timeRegions": [],
      "timeShift": null,
      "title": "Apdex attribution for server_route_manifest_reads Latency - per method",
      "tooltip": {
        "shared": true,
        "sort": 2,
        "value_type": "individual"
      },
      "type": "graph",
      "xaxis": {
        "buckets": null,
        "mode": "time",
        "name": null,
        "show": true,
        "values": []
      },
      "yaxes": [
        {
          "format": "percentunit",
          "label": "Percent",
          "logBase": 1,
          "show": true
        },
        {
          "format": "short",
          "logBase": 1,
          "max": 1,
          "min": 0,
          "show": false
        }
      ],
      "yaxis": {
        "align": false,
        "alignLevel": null
      }
    },
    {
      "aliasColors": {},
      "bars": false,
      "dashLength": 10,
      "dashes": false,
      "datasource": "$PROMETHEUS_DS",
      "decimals": 0,
      "description": "",
      "fieldConfig": {
        "defaults": {
          "custom": {}
        },
        "overrides": []
      },
      "fill": 0,
      "fillGradient": 0,
      "gridPos": {
        "h": 10,
        "w": 8,
        "x": 16,
        "y": 42
      },
      "hiddenSeries": false,
      "id": 73,
      "legend": {
        "alignAsTable": true,
        "avg": true,
        "current": true,
        "hideEmpty": true,
        "max": true,
        "min": true,
        "rightSide": false,
        "show": true,
        "total": false,
        "values": true
      },
      "lines": true,
      "linewidth": 2,
      "nullPointMode": "null",
      "options": {
        "alertThreshold": true
      },
      "percentage": false,
      "pluginVersion": "7.2.0",
      "pointradius": 5,
      "points": false,
      "renderer": "flot",
      "seriesOverrides": [],
      "spaceLength": 10,
      "stack": false,
      "steppedLine": false,
      "targets": [
        {
          "expr": "sum by (method) (\n  rate(registry_http_request_duration_seconds_count{env=\"$environment\",environment=\"$environment\",method=~\"get|head\",route=\"/v2/{name}/manifests/{reference}\",stage=\"$stage\",migration_path=~\"$migration_path\"}[$__interval])\n)\n",
          "format": "time_series",
          "interval": "1m",
          "intervalFactor": 2,
          "legendFormat": "{{migration_path}} {{method}}",
          "refId": "A"
        }
      ],
      "thresholds": [],
      "timeFrom": null,
      "timeRegions": [],
      "timeShift": null,
      "title": "server_route_manifest_reads RPS - per method",
      "tooltip": {
        "shared": true,
        "sort": 2,
        "value_type": "individual"
      },
      "type": "graph",
      "xaxis": {
        "buckets": null,
        "mode": "time",
        "name": null,
        "show": true,
        "values": []
      },
      "yaxes": [
        {
          "format": "short",
          "label": "Requests per Second",
          "logBase": 1,
          "min": 0,
          "show": true
        },
        {
          "format": "short",
          "logBase": 1,
          "max": 1,
          "min": 0,
          "show": false
        }
      ],
      "yaxis": {
        "align": false,
        "alignLevel": null
      }
    },
    {
      "collapse": true,
      "collapsed": true,
      "datasource": null,
      "gridPos": {
        "h": 1,
        "w": 24,
        "x": 0,
        "y": 52
      },
      "id": 77,
      "panels": [
        {
          "aliasColors": {},
          "bars": false,
          "dashLength": 10,
          "dashes": false,
          "datasource": "$PROMETHEUS_DS",
          "decimals": 2,
          "description": "",
          "fieldConfig": {
            "defaults": {
              "custom": {}
            },
            "overrides": []
          },
          "fill": 0,
          "fillGradient": 0,
          "gridPos": {
            "h": 10,
            "w": 12,
            "x": 0,
            "y": 33
          },
          "hiddenSeries": false,
          "id": 78,
          "legend": {
            "alignAsTable": true,
            "avg": true,
            "current": true,
            "hideEmpty": true,
            "max": true,
            "min": true,
            "rightSide": false,
            "show": true,
            "total": false,
            "values": true
          },
          "lines": true,
          "linewidth": 2,
          "nullPointMode": "null",
          "options": {
            "alertThreshold": true
          },
          "percentage": false,
          "pluginVersion": "7.2.0",
          "pointradius": 5,
          "points": false,
          "renderer": "flot",
          "seriesOverrides": [],
          "spaceLength": 10,
          "stack": false,
          "steppedLine": false,
          "targets": [
            {
              "expr": "histogram_quantile(\n  0.900000,\n  sum by (le) (\n    rate(registry_http_request_duration_seconds_bucket{env=\"$environment\",environment=\"$environment\",method=~\"put|delete|post|patch\",route=\"/v2/{name}/manifests/{reference}\",stage=\"$stage\",type=\"registry\",migration_path=~\"$migration_path\"}[$__interval])\n  )\n)\n",
              "format": "time_series",
              "interval": "1m",
              "intervalFactor": 2,
              "legendFormat": "p90 overall {{migration_path}}",
              "refId": "A"
            }
          ],
          "thresholds": [
            {
              "colorMode": "custom",
              "fill": true,
              "fillColor": "rgba(242, 73, 92, 0.5)",
              "line": false,
              "op": "gt",
              "value": 25,
              "yaxis": "left"
            },
            {
              "colorMode": "custom",
              "fill": true,
              "fillColor": "rgba(242, 73, 92, 0.25)",
              "line": false,
              "op": "gt",
              "value": 10,
              "yaxis": "left"
            }
          ],
          "timeFrom": null,
          "timeRegions": [],
          "timeShift": null,
          "title": "Estimated p90 server_route_manifest_writes Latency - Overall",
          "tooltip": {
            "shared": true,
            "sort": 2,
            "value_type": "individual"
          },
          "type": "graph",
          "xaxis": {
            "buckets": null,
            "mode": "time",
            "name": null,
            "show": true,
            "values": []
          },
          "yaxes": [
            {
              "format": "s",
              "label": "Duration",
              "logBase": 10,
              "min": 0.01,
              "show": true
            },
            {
              "format": "short",
              "logBase": 1,
              "max": 1,
              "min": 0,
              "show": false
            }
          ],
          "yaxis": {
            "align": false,
            "alignLevel": null
          }
        },
        {
          "aliasColors": {},
          "bars": false,
          "dashLength": 10,
          "dashes": false,
          "datasource": "$PROMETHEUS_DS",
          "decimals": 0,
          "description": "",
          "fieldConfig": {
            "defaults": {
              "custom": {}
            },
            "overrides": []
          },
          "fill": 0,
          "fillGradient": 0,
          "gridPos": {
            "h": 10,
            "w": 12,
            "x": 12,
            "y": 33
          },
          "hiddenSeries": false,
          "id": 79,
          "legend": {
            "alignAsTable": true,
            "avg": true,
            "current": true,
            "hideEmpty": true,
            "max": true,
            "min": true,
            "rightSide": false,
            "show": true,
            "total": false,
            "values": true
          },
          "lines": true,
          "linewidth": 2,
          "nullPointMode": "null",
          "options": {
            "alertThreshold": true
          },
          "percentage": false,
          "pluginVersion": "7.2.0",
          "pointradius": 5,
          "points": false,
          "renderer": "flot",
          "seriesOverrides": [],
          "spaceLength": 10,
          "stack": false,
          "steppedLine": false,
          "targets": [
            {
              "expr": "sum by () (\n  rate(registry_http_request_duration_seconds_count{env=\"$environment\",environment=\"$environment\",method=~\"put|delete|post|patch\",route=\"/v2/{name}/manifests/{reference}\",stage=\"$stage\",migration_path=~\"$migration_path\"}[$__interval])\n)\n",
              "format": "time_series",
              "interval": "1m",
              "intervalFactor": 2,
              "legendFormat": "overall {{migration_path}}",
              "refId": "A"
            }
          ],
          "thresholds": [],
          "timeFrom": null,
          "timeRegions": [],
          "timeShift": null,
          "title": "server_route_manifest_writes RPS - Overall",
          "tooltip": {
            "shared": true,
            "sort": 2,
            "value_type": "individual"
          },
          "type": "graph",
          "xaxis": {
            "buckets": null,
            "mode": "time",
            "name": null,
            "show": true,
            "values": []
          },
          "yaxes": [
            {
              "format": "short",
              "label": "Requests per Second",
              "logBase": 1,
              "min": 0,
              "show": true
            },
            {
              "format": "short",
              "logBase": 1,
              "max": 1,
              "min": 0,
              "show": false
            }
          ],
          "yaxis": {
            "align": false,
            "alignLevel": null
          }
        },
        {
          "aliasColors": {},
          "bars": false,
          "dashLength": 10,
          "dashes": false,
          "datasource": "$PROMETHEUS_DS",
          "decimals": 2,
          "description": "",
          "fieldConfig": {
            "defaults": {
              "custom": {}
            },
            "overrides": []
          },
          "fill": 0,
          "fillGradient": 0,
          "gridPos": {
            "h": 10,
            "w": 8,
            "x": 0,
            "y": 43
          },
          "hiddenSeries": false,
          "id": 80,
          "legend": {
            "alignAsTable": true,
            "avg": true,
            "current": true,
            "hideEmpty": true,
            "max": true,
            "min": true,
            "rightSide": false,
            "show": true,
            "total": false,
            "values": true
          },
          "lines": true,
          "linewidth": 2,
          "nullPointMode": "null",
          "options": {
            "alertThreshold": true
          },
          "percentage": false,
          "pluginVersion": "7.2.0",
          "pointradius": 5,
          "points": false,
          "renderer": "flot",
          "seriesOverrides": [],
          "spaceLength": 10,
          "stack": false,
          "steppedLine": false,
          "targets": [
            {
              "expr": "histogram_quantile(\n  0.900000,\n  sum by (method,le) (\n    rate(registry_http_request_duration_seconds_bucket{env=\"$environment\",environment=\"$environment\",method=~\"put|delete|post|patch\",route=\"/v2/{name}/manifests/{reference}\",stage=\"$stage\",type=\"registry\",migration_path=~\"$migration_path\"}[$__interval])\n  )\n)\n",
              "format": "time_series",
              "interval": "1m",
              "intervalFactor": 2,
              "legendFormat": "p90 {{migration_path}} {{method}}",
              "refId": "A"
            }
          ],
          "thresholds": [
            {
              "colorMode": "custom",
              "fill": true,
              "fillColor": "rgba(242, 73, 92, 0.5)",
              "line": false,
              "op": "gt",
              "value": 25,
              "yaxis": "left"
            },
            {
              "colorMode": "custom",
              "fill": true,
              "fillColor": "rgba(242, 73, 92, 0.25)",
              "line": false,
              "op": "gt",
              "value": 10,
              "yaxis": "left"
            }
          ],
          "timeFrom": null,
          "timeRegions": [],
          "timeShift": null,
          "title": "Estimated p90 server_route_manifest_writes Latency - per method",
          "tooltip": {
            "shared": true,
            "sort": 2,
            "value_type": "individual"
          },
          "type": "graph",
          "xaxis": {
            "buckets": null,
            "mode": "time",
            "name": null,
            "show": true,
            "values": []
          },
          "yaxes": [
            {
              "format": "s",
              "label": "Duration",
              "logBase": 10,
              "min": 0.01,
              "show": true
            },
            {
              "format": "short",
              "logBase": 1,
              "max": 1,
              "min": 0,
              "show": false
            }
          ],
          "yaxis": {
            "align": false,
            "alignLevel": null
          }
        },
        {
          "aliasColors": {},
          "bars": false,
          "dashLength": 10,
          "dashes": false,
          "datasource": "$PROMETHEUS_DS",
          "decimals": 2,
          "description": "Attributes apdex downscoring",
          "fieldConfig": {
            "defaults": {
              "custom": {}
            },
            "overrides": []
          },
          "fill": 4,
          "fillGradient": 0,
          "gridPos": {
            "h": 10,
            "w": 8,
            "x": 8,
            "y": 43
          },
          "hiddenSeries": false,
          "id": 81,
          "legend": {
            "alignAsTable": true,
            "avg": true,
            "current": true,
            "hideEmpty": true,
            "max": true,
            "min": true,
            "rightSide": false,
            "show": true,
            "total": false,
            "values": true
          },
          "lines": true,
          "linewidth": 1,
          "nullPointMode": "null",
          "options": {
            "alertThreshold": true
          },
          "percentage": false,
          "pluginVersion": "7.2.0",
          "pointradius": 5,
          "points": false,
          "renderer": "flot",
          "seriesOverrides": [
            {
              "alias": "/.*/",
              "transform": "negative-Y"
            }
          ],
          "spaceLength": 10,
          "stack": true,
          "steppedLine": false,
          "targets": [
            {
              "expr": "clamp_min(clamp_max((\n  sum by (method) (\n  rate(registry_http_request_duration_seconds_bucket{env=\"$environment\",environment=\"$environment\",le=\"+Inf\",method=~\"put|delete|post|patch\",route=\"/v2/{name}/manifests/{reference}\",stage=\"$stage\",type=\"registry\",migration_path=~\"$migration_path\"}[$__interval])\n)\n\n  -\n  (\n    (\n  sum by (method) (\n    rate(registry_http_request_duration_seconds_bucket{env=\"$environment\",environment=\"$environment\",le=\"10\",method=~\"put|delete|post|patch\",route=\"/v2/{name}/manifests/{reference}\",stage=\"$stage\",type=\"registry\",migration_path=~\"$migration_path\"}[$__interval])\n  )\n  +\n  sum by (method) (\n    rate(registry_http_request_duration_seconds_bucket{env=\"$environment\",environment=\"$environment\",le=\"25\",method=~\"put|delete|post|patch\",route=\"/v2/{name}/manifests/{reference}\",stage=\"$stage\",type=\"registry\",migration_path=~\"$migration_path\"}[$__interval])\n  )\n)\n/\n2\n\n  )\n)\n/ ignoring(method) group_left()\n(\n  sum by () (\n  rate(registry_http_request_duration_seconds_bucket{env=\"$environment\",environment=\"$environment\",le=\"+Inf\",method=~\"put|delete|post|patch\",route=\"/v2/{name}/manifests/{reference}\",stage=\"$stage\",type=\"registry\",migration_path=~\"$migration_path\"}[$__interval])\n)\n\n)\n\n,1),0)\n",
              "format": "time_series",
              "interval": "1m",
              "intervalFactor": 3,
              "legendFormat": "{{migration_path}} {{method}}",
              "refId": "A"
            }
          ],
          "thresholds": [],
          "timeFrom": null,
          "timeRegions": [],
          "timeShift": null,
          "title": "Apdex attribution for server_route_manifest_writes Latency - per method",
          "tooltip": {
            "shared": true,
            "sort": 2,
            "value_type": "individual"
          },
          "type": "graph",
          "xaxis": {
            "buckets": null,
            "mode": "time",
            "name": null,
            "show": true,
            "values": []
          },
          "yaxes": [
            {
              "format": "percentunit",
              "label": "Percent",
              "logBase": 1,
              "show": true
            },
            {
              "format": "short",
              "logBase": 1,
              "max": 1,
              "min": 0,
              "show": false
            }
          ],
          "yaxis": {
            "align": false,
            "alignLevel": null
          }
        },
        {
          "aliasColors": {},
          "bars": false,
          "dashLength": 10,
          "dashes": false,
          "datasource": "$PROMETHEUS_DS",
          "decimals": 0,
          "description": "",
          "fieldConfig": {
            "defaults": {
              "custom": {}
            },
            "overrides": []
          },
          "fill": 0,
          "fillGradient": 0,
          "gridPos": {
            "h": 10,
            "w": 8,
            "x": 16,
            "y": 43
          },
          "hiddenSeries": false,
          "id": 82,
          "legend": {
            "alignAsTable": true,
            "avg": true,
            "current": true,
            "hideEmpty": true,
            "max": true,
            "min": true,
            "rightSide": false,
            "show": true,
            "total": false,
            "values": true
          },
          "lines": true,
          "linewidth": 2,
          "nullPointMode": "null",
          "options": {
            "alertThreshold": true
          },
          "percentage": false,
          "pluginVersion": "7.2.0",
          "pointradius": 5,
          "points": false,
          "renderer": "flot",
          "seriesOverrides": [],
          "spaceLength": 10,
          "stack": false,
          "steppedLine": false,
          "targets": [
            {
              "expr": "sum by (method) (\n  rate(registry_http_request_duration_seconds_count{env=\"$environment\",environment=\"$environment\",method=~\"put|delete|post|patch\",route=\"/v2/{name}/manifests/{reference}\",stage=\"$stage\",migration_path=~\"$migration_path\"}[$__interval])\n)\n",
              "format": "time_series",
              "interval": "1m",
              "intervalFactor": 2,
              "legendFormat": "{{migration_path}} {{method}}",
              "refId": "A"
            }
          ],
          "thresholds": [],
          "timeFrom": null,
          "timeRegions": [],
          "timeShift": null,
          "title": "server_route_manifest_writes RPS - per method",
          "tooltip": {
            "shared": true,
            "sort": 2,
            "value_type": "individual"
          },
          "type": "graph",
          "xaxis": {
            "buckets": null,
            "mode": "time",
            "name": null,
            "show": true,
            "values": []
          },
          "yaxes": [
            {
              "format": "short",
              "label": "Requests per Second",
              "logBase": 1,
              "min": 0,
              "show": true
            },
            {
              "format": "short",
              "logBase": 1,
              "max": 1,
              "min": 0,
              "show": false
            }
          ],
          "yaxis": {
            "align": false,
            "alignLevel": null
          }
        }
      ],
      "repeat": null,
      "repeatIteration": null,
      "repeatRowId": null,
      "showTitle": true,
      "title": "🔬 server_route_manifest_writes Service Level Indicator Detail",
      "titleSize": "h6",
      "type": "row"
    },
    {
      "collapse": true,
      "collapsed": true,
      "datasource": null,
      "gridPos": {
        "h": 1,
        "w": 24,
        "x": 0,
        "y": 53
      },
      "id": 86,
      "panels": [
        {
          "aliasColors": {},
          "bars": false,
          "dashLength": 10,
          "dashes": false,
          "datasource": "$PROMETHEUS_DS",
          "decimals": 2,
          "description": "",
          "fieldConfig": {
            "defaults": {
              "custom": {}
            },
            "overrides": []
          },
          "fill": 0,
          "fillGradient": 0,
          "gridPos": {
            "h": 10,
            "w": 12,
            "x": 0,
            "y": 34
          },
          "hiddenSeries": false,
          "id": 87,
          "legend": {
            "alignAsTable": true,
            "avg": true,
            "current": true,
            "hideEmpty": true,
            "max": true,
            "min": true,
            "rightSide": false,
            "show": true,
            "total": false,
            "values": true
          },
          "lines": true,
          "linewidth": 2,
          "nullPointMode": "null",
          "options": {
            "alertThreshold": true
          },
          "percentage": false,
          "pluginVersion": "7.2.0",
          "pointradius": 5,
          "points": false,
          "renderer": "flot",
          "seriesOverrides": [],
          "spaceLength": 10,
          "stack": false,
          "steppedLine": false,
          "targets": [
            {
              "expr": "histogram_quantile(\n  0.900000,\n  sum by (le) (\n    rate(registry_storage_action_seconds_bucket{env=\"$environment\",environment=\"$environment\",stage=\"$stage\",migration_path=~\"$migration_path\"}[$__interval])\n  )\n)\n",
              "format": "time_series",
              "interval": "1m",
              "intervalFactor": 2,
              "legendFormat": "p90 overall {{migration_path}}",
              "refId": "A"
            }
          ],
          "thresholds": [
            {
              "colorMode": "custom",
              "fill": true,
              "fillColor": "rgba(242, 73, 92, 0.5)",
              "line": false,
              "op": "gt",
              "yaxis": "left"
            },
            {
              "colorMode": "custom",
              "fill": true,
              "fillColor": "rgba(242, 73, 92, 0.25)",
              "line": false,
              "op": "gt",
              "value": 1,
              "yaxis": "left"
            }
          ],
          "timeFrom": null,
          "timeRegions": [],
          "timeShift": null,
          "title": "Estimated p90 storage Latency - Overall",
          "tooltip": {
            "shared": true,
            "sort": 2,
            "value_type": "individual"
          },
          "type": "graph",
          "xaxis": {
            "buckets": null,
            "mode": "time",
            "name": null,
            "show": true,
            "values": []
          },
          "yaxes": [
            {
              "format": "s",
              "label": "Duration",
              "logBase": 10,
              "min": 0.01,
              "show": true
            },
            {
              "format": "short",
              "logBase": 1,
              "max": 1,
              "min": 0,
              "show": false
            }
          ],
          "yaxis": {
            "align": false,
            "alignLevel": null
          }
        },
        {
          "aliasColors": {},
          "bars": false,
          "dashLength": 10,
          "dashes": false,
          "datasource": "$PROMETHEUS_DS",
          "decimals": 0,
          "description": "",
          "fieldConfig": {
            "defaults": {
              "custom": {}
            },
            "overrides": []
          },
          "fill": 0,
          "fillGradient": 0,
          "gridPos": {
            "h": 10,
            "w": 12,
            "x": 12,
            "y": 34
          },
          "hiddenSeries": false,
          "id": 88,
          "legend": {
            "alignAsTable": true,
            "avg": true,
            "current": true,
            "hideEmpty": true,
            "max": true,
            "min": true,
            "rightSide": false,
            "show": true,
            "total": false,
            "values": true
          },
          "lines": true,
          "linewidth": 2,
          "nullPointMode": "null",
          "options": {
            "alertThreshold": true
          },
          "percentage": false,
          "pluginVersion": "7.2.0",
          "pointradius": 5,
          "points": false,
          "renderer": "flot",
          "seriesOverrides": [],
          "spaceLength": 10,
          "stack": false,
          "steppedLine": false,
          "targets": [
            {
              "expr": "sum by () (\n  rate(registry_storage_action_seconds_count{env=\"$environment\",environment=\"$environment\",stage=\"$stage\",migration_path=~\"$migration_path\"}[$__interval])\n)\n",
              "format": "time_series",
              "interval": "1m",
              "intervalFactor": 2,
              "legendFormat": "overall {{migration_path}}",
              "refId": "A"
            }
          ],
          "thresholds": [],
          "timeFrom": null,
          "timeRegions": [],
          "timeShift": null,
          "title": "storage RPS - Overall",
          "tooltip": {
            "shared": true,
            "sort": 2,
            "value_type": "individual"
          },
          "type": "graph",
          "xaxis": {
            "buckets": null,
            "mode": "time",
            "name": null,
            "show": true,
            "values": []
          },
          "yaxes": [
            {
              "format": "short",
              "label": "Requests per Second",
              "logBase": 1,
              "min": 0,
              "show": true
            },
            {
              "format": "short",
              "logBase": 1,
              "max": 1,
              "min": 0,
              "show": false
            }
          ],
          "yaxis": {
            "align": false,
            "alignLevel": null
          }
        },
        {
          "aliasColors": {},
          "bars": false,
          "dashLength": 10,
          "dashes": false,
          "datasource": "$PROMETHEUS_DS",
          "decimals": 2,
          "description": "",
          "fieldConfig": {
            "defaults": {
              "custom": {}
            },
            "overrides": []
          },
          "fill": 0,
          "fillGradient": 0,
          "gridPos": {
            "h": 10,
            "w": 8,
            "x": 0,
            "y": 44
          },
          "hiddenSeries": false,
          "id": 89,
          "legend": {
            "alignAsTable": true,
            "avg": true,
            "current": true,
            "hideEmpty": true,
            "max": true,
            "min": true,
            "rightSide": false,
            "show": true,
            "total": false,
            "values": true
          },
          "lines": true,
          "linewidth": 2,
          "nullPointMode": "null",
          "options": {
            "alertThreshold": true
          },
          "percentage": false,
          "pluginVersion": "7.2.0",
          "pointradius": 5,
          "points": false,
          "renderer": "flot",
          "seriesOverrides": [],
          "spaceLength": 10,
          "stack": false,
          "steppedLine": false,
          "targets": [
            {
              "expr": "histogram_quantile(\n  0.900000,\n  sum by (action,le) (\n    rate(registry_storage_action_seconds_bucket{env=\"$environment\",environment=\"$environment\",stage=\"$stage\",migration_path=~\"$migration_path\"}[$__interval])\n  )\n)\n",
              "format": "time_series",
              "interval": "1m",
              "intervalFactor": 2,
              "legendFormat": "p90 {{migration_path}} {{action}}",
              "refId": "A"
            }
          ],
          "thresholds": [
            {
              "colorMode": "custom",
              "fill": true,
              "fillColor": "rgba(242, 73, 92, 0.5)",
              "line": false,
              "op": "gt",
              "yaxis": "left"
            },
            {
              "colorMode": "custom",
              "fill": true,
              "fillColor": "rgba(242, 73, 92, 0.25)",
              "line": false,
              "op": "gt",
              "value": 1,
              "yaxis": "left"
            }
          ],
          "timeFrom": null,
          "timeRegions": [],
          "timeShift": null,
          "title": "Estimated p90 storage Latency - per action",
          "tooltip": {
            "shared": true,
            "sort": 2,
            "value_type": "individual"
          },
          "type": "graph",
          "xaxis": {
            "buckets": null,
            "mode": "time",
            "name": null,
            "show": true,
            "values": []
          },
          "yaxes": [
            {
              "format": "s",
              "label": "Duration",
              "logBase": 10,
              "min": 0.01,
              "show": true
            },
            {
              "format": "short",
              "logBase": 1,
              "max": 1,
              "min": 0,
              "show": false
            }
          ],
          "yaxis": {
            "align": false,
            "alignLevel": null
          }
        },
        {
          "aliasColors": {},
          "bars": false,
          "dashLength": 10,
          "dashes": false,
          "datasource": "$PROMETHEUS_DS",
          "decimals": 2,
          "description": "Attributes apdex downscoring",
          "fieldConfig": {
            "defaults": {
              "custom": {}
            },
            "overrides": []
          },
          "fill": 4,
          "fillGradient": 0,
          "gridPos": {
            "h": 10,
            "w": 8,
            "x": 8,
            "y": 44
          },
          "hiddenSeries": false,
          "id": 90,
          "legend": {
            "alignAsTable": true,
            "avg": true,
            "current": true,
            "hideEmpty": true,
            "max": true,
            "min": true,
            "rightSide": false,
            "show": true,
            "total": false,
            "values": true
          },
          "lines": true,
          "linewidth": 1,
          "nullPointMode": "null",
          "options": {
            "alertThreshold": true
          },
          "percentage": false,
          "pluginVersion": "7.2.0",
          "pointradius": 5,
          "points": false,
          "renderer": "flot",
          "seriesOverrides": [
            {
              "alias": "/.*/",
              "transform": "negative-Y"
            }
          ],
          "spaceLength": 10,
          "stack": true,
          "steppedLine": false,
          "targets": [
            {
              "expr": "clamp_min(clamp_max((\n  sum by (action) (\n  rate(registry_storage_action_seconds_bucket{env=\"$environment\",environment=\"$environment\",stage=\"$stage\",migration_path=~\"$migration_path\", le=\"+Inf\"}[$__interval])\n)\n\n  -\n  (\n    sum by (action) (\n  rate(registry_storage_action_seconds_bucket{env=\"$environment\",environment=\"$environment\",stage=\"$stage\",migration_path=~\"$migration_path\", le=\"1\"}[$__interval])\n)\n\n  )\n)\n/ ignoring(action) group_left()\n(\n  sum by () (\n  rate(registry_storage_action_seconds_bucket{env=\"$environment\",environment=\"$environment\",stage=\"$stage\",migration_path=~\"$migration_path\", le=\"+Inf\"}[$__interval])\n)\n\n)\n\n,1),0)\n",
              "format": "time_series",
              "interval": "1m",
              "intervalFactor": 3,
              "legendFormat": "{{migration_path}} {{action}}",
              "refId": "A"
            }
          ],
          "thresholds": [],
          "timeFrom": null,
          "timeRegions": [],
          "timeShift": null,
          "title": "Apdex attribution for storage Latency - per action",
          "tooltip": {
            "shared": true,
            "sort": 2,
            "value_type": "individual"
          },
          "type": "graph",
          "xaxis": {
            "buckets": null,
            "mode": "time",
            "name": null,
            "show": true,
            "values": []
          },
          "yaxes": [
            {
              "format": "percentunit",
              "label": "Percent",
              "logBase": 1,
              "show": true
            },
            {
              "format": "short",
              "logBase": 1,
              "max": 1,
              "min": 0,
              "show": false
            }
          ],
          "yaxis": {
            "align": false,
            "alignLevel": null
          }
        },
        {
          "aliasColors": {},
          "bars": false,
          "dashLength": 10,
          "dashes": false,
          "datasource": "$PROMETHEUS_DS",
          "decimals": 0,
          "description": "",
          "fieldConfig": {
            "defaults": {
              "custom": {}
            },
            "overrides": []
          },
          "fill": 0,
          "fillGradient": 0,
          "gridPos": {
            "h": 10,
            "w": 8,
            "x": 16,
            "y": 44
          },
          "hiddenSeries": false,
          "id": 91,
          "legend": {
            "alignAsTable": true,
            "avg": true,
            "current": true,
            "hideEmpty": true,
            "max": true,
            "min": true,
            "rightSide": false,
            "show": true,
            "total": false,
            "values": true
          },
          "lines": true,
          "linewidth": 2,
          "nullPointMode": "null",
          "options": {
            "alertThreshold": true
          },
          "percentage": false,
          "pluginVersion": "7.2.0",
          "pointradius": 5,
          "points": false,
          "renderer": "flot",
          "seriesOverrides": [],
          "spaceLength": 10,
          "stack": false,
          "steppedLine": false,
          "targets": [
            {
              "expr": "sum by (action) (\n  rate(registry_storage_action_seconds_count{env=\"$environment\",environment=\"$environment\",stage=\"$stage\",migration_path=~\"$migration_path\"}[$__interval])\n)\n",
              "format": "time_series",
              "interval": "1m",
              "intervalFactor": 2,
              "legendFormat": "{{migration_path}} {{action}}",
              "refId": "A"
            }
          ],
          "thresholds": [],
          "timeFrom": null,
          "timeRegions": [],
          "timeShift": null,
          "title": "storage RPS - per action",
          "tooltip": {
            "shared": true,
            "sort": 2,
            "value_type": "individual"
          },
          "type": "graph",
          "xaxis": {
            "buckets": null,
            "mode": "time",
            "name": null,
            "show": true,
            "values": []
          },
          "yaxes": [
            {
              "format": "short",
              "label": "Requests per Second",
              "logBase": 1,
              "min": 0,
              "show": true
            },
            {
              "format": "short",
              "logBase": 1,
              "max": 1,
              "min": 0,
              "show": false
            }
          ],
          "yaxis": {
            "align": false,
            "alignLevel": null
          }
        }
      ],
      "repeat": null,
      "repeatIteration": null,
      "repeatRowId": null,
      "showTitle": true,
      "title": "🔬 storage Service Level Indicator Detail",
      "titleSize": "h6",
      "type": "row"
    }
  ],
  "refresh": "",
  "schemaVersion": 26,
  "style": "light",
  "tags": [
    "unmanaged"
  ],
  "templating": {
    "list": [
      {
        "current": {
          "selected": false,
          "text": "Global",
          "value": "Global"
        },
        "hide": 0,
        "includeAll": false,
        "label": null,
        "multi": false,
        "name": "PROMETHEUS_DS",
        "options": [],
        "query": "prometheus",
        "refresh": 1,
        "regex": "/(.*-gprd|Frank|Global|gprd-.*)/",
        "skipUrlSync": false,
        "type": "datasource"
      },
      {
        "allValue": null,
        "current": {
          "selected": true,
          "text": "pre",
          "value": "pre"
        },
        "datasource": "$PROMETHEUS_DS",
        "definition": "",
        "hide": 0,
        "includeAll": false,
        "label": null,
        "multi": false,
        "name": "environment",
        "options": [],
        "query": "label_values(gitlab_service_ops:rate, environment)",
        "refresh": 1,
        "regex": "",
        "skipUrlSync": false,
        "sort": 1,
        "tagValuesQuery": "",
        "tags": [],
        "tagsQuery": "",
        "type": "query",
        "useTags": false
      },
      {
        "allValue": null,
        "current": {
          "selected": false,
          "text": "main",
          "value": "main"
        },
        "hide": 0,
        "includeAll": false,
        "label": "",
        "multi": false,
        "name": "stage",
        "options": [
          {
            "selected": true,
            "text": "main",
            "value": "main"
          },
          {
            "selected": false,
            "text": "cny",
            "value": "cny"
          },
          {
            "selected": false,
            "text": "",
            "value": ""
          }
        ],
        "query": "main,cny,",
        "refresh": 0,
        "skipUrlSync": false,
        "type": "custom"
      },
      {
        "allValue": null,
        "current": {
          "selected": true,
          "tags": [],
          "text": [
            "old"
          ],
          "value": [
            "old"
          ]
        },
        "hide": 0,
        "includeAll": true,
        "label": "migration_path",
        "multi": true,
        "name": "migration_path",
        "options": [
          {
            "selected": false,
            "text": "All",
            "value": "$__all"
          },
          {
            "selected": true,
            "text": "old",
            "value": "old"
          },
          {
            "selected": false,
            "text": "new",
            "value": "new"
          }
        ],
        "query": "old,new",
        "queryValue": "",
        "skipUrlSync": false,
        "type": "custom"
      }
    ]
  },
  "time": {
    "from": "now-24h",
    "to": "now"
  },
  "timepicker": {
    "refresh_intervals": [
      "5s",
      "10s",
      "30s",
      "1m",
      "5m",
      "15m",
      "30m",
      "1h",
      "2h",
      "1d"
    ],
    "time_options": [
      "5m",
      "15m",
      "1h",
      "6h",
      "12h",
      "24h",
      "2d",
      "7d",
      "30d"
    ]
  },
  "timezone": "utc",
  "title": "migration_path",
  "version": 17
}
